<!DOCTYPE html>
<html lang="en">
<head>
	<meta charset="UTF-8">
	<title>Index</title>

</head>
<body>

<header>HEADER</header>

<p>TEST TEST TEST TEST TEST TEST</p>
<p>TEST TEST TEST TEST TEST TEST</p>
<p>新規追加</p>

<footer>FOOTER</footer>


</body>
</html>
